…
Using the results you got from questions 4. Pick a word and count the
words that appears after and before it.

``` r
bigrams <- mtsamples %>%
  unnest_ngrams(output = bigram, input = transcription, n = 2) %>%
  separate(bigram, into = c("w1", "w2"), sep = " ") 
bigrams %>%
  filter(w1 == "draped")%>%
  select(w1, w2) %>%
  count(w2, sort = TRUE)
```

    ## # A tibble: 54 × 2
    ##    w2                n
    ##    <chr>         <int>
    ##  1 in             1419
    ##  2 a                44
    ##  3 and              41
    ##  4 with             29
    ##  5 the              25
    ##  6 cardiac          10
    ##  7 accordingly       8
    ##  8 sterilely         8
    ##  9 appropriately     6
    ## 10 aseptically       6
    ## # … with 44 more rows
…
``` r
mtsamples %>%
  unnest_tokens(output = word, input = transcription)%>%
  anti_join(stop_words, by = "word") %>%
  filter(!grepl("^[0-9]+$", x = word)) %>%
  group_by(medical_specialty)%>%
  top_n(5)%>%
  count(word, sort = TRUE)
```

    ## Selecting by word

    ## # A tibble: 131 × 3
    ## # Groups:   medical_specialty [40]
    ##    medical_specialty                word          n
    ##    <chr>                            <chr>     <int>
    ##  1 " Consult - History and Phy."    zyrtec       18
    ##  2 " Autopsy"                       yellow       17
    ##  3 " Letters"                       yyyy         16
    ##  4 " Chiropractic"                  xyz          15
    ##  5 " General Medicine"              zyrtec       14
    ##  6 " Pain Management"               xylocaine    10
    ##  7 " Psychiatry / Psychology"       zyprexa       9
    ##  8 " Neurosurgery"                  zygoma        7
    ##  9 " Lab Medicine - Pathology"      wedge         6
    ## 10 " SOAP / Chart / Progress Notes" zyrtec        6
    ## # … with 121 more rows
…
